{
  "pipelines": [
    {
      "vertexShader": "default",
      "fragmentShader": "color"
    }
  ],
  "objects": [
    {
      "model": "simple/cube.obj",
      "texture": "none.png",

      "scale": [0.3, 0.3, 0.3],
      "position": [0, 1, 0],
      "rotation": [45, 45, 45],
      "color": [1, 0, 0]
    },
    {
      "model": "simple/cube.obj",
      "texture": "none.png",

      "scale": [0.3, 0.3, 0.3],
      "position": [1, 0, 0],
      "rotation": [-45, 45, 45],
      "color": [0, 1, 0]
    },
    {
      "model": "simple/cube.obj",
      "texture": "none.png",

      "scale": [0.3, 0.3, 0.3],
      "position": [0, -1, 0],
      "rotation": [45, -45, 45],
      "color": [0, 0, 1]
    },
    {
      "model": "simple/cube.obj",
      "texture": "none.png",

      "scale": [0.3, 0.3, 0.3],
      "position": [-1, 0, 0],
      "rotation": [45, 45, -45],
      "color": [1, 1, 0]
    },
    {
      "model": "simple/cube.obj",
      "texture": "none.png",

      "scale": [0.3, 0.3, 0.3],
      "position": [0, 0, 0],
      "rotation": [-45, -45, -45],
      "color": [1, 0, 1]
    },
    {
      "model": "simple/cube.obj",
      "texture": "none.png",

      "scale": [0.3, 0.3, 0.3],
      "position": [-1, -1, 0],
      "rotation": [-45, 45, -45],
      "color": [0, 1, 1]
    },
    {
      "model": "simple/cube.obj",
      "texture": "none.png",

      "scale": [0.3, 0.3, 0.3],
      "position": [1, 1, 0],
      "rotation": [45, -45, -45],
      "color": [0.5, 0.5, 0.5]
    },
    {
      "model": "simple/cube.obj",
      "texture": "none.png",

      "scale": [0.3, 0.3, 0.3],
      "position": [-1, 1, 0],
      "rotation": [-45, -45, 45],
      "color": [1, 1, 1]
    },
    {
      "model": "simple/cube.obj",
      "texture": "none.png",

      "scale": [0.3, 0.3, 0.3],
      "position": [1, -1, 0],
      "rotation": [45, 30, -90],
      "color": [0.1, 0.1, 0.1]
    }
  ]
}